%YAML 1.1
%TAG !u! tag:unity3d.com,2011:
--- !u!1045 &1
EditorBuildSettings:
  m_ObjectHideFlags: 0
  serializedVersion: 2
  m_Scenes:
  - enabled: 0
    path: 
    guid: 00000000000000000000000000000000
  - enabled: 1
    path: Assets/_Scenes/TeamLogo.unity
    guid: 247a326fe6af0284a810560b8603cf6a
  - enabled: 1
    path: Assets/_Scenes/PolimiGameCollective.unity
    guid: f05bd12ba804bea4ea5672dfe4749369
  - enabled: 1
    path: Assets/_Scenes/Clean_Scene.unity
    guid: b0c252f4cc64c434d8e0860f848b74be
  - enabled: 1
    path: Assets/_Scenes/GameIntro.unity
    guid: 7e93a3f34bbf94a8ab4d5cfd84937c7b
  - enabled: 0
    path: Assets/_Scenes/Gianpaolo.unity
    guid: 20eb7b46538021a4fa5301723d03c35c
  - enabled: 0
    path: Assets/_Scenes/Testing.unity
    guid: 5e0fcc264a12a4a21bf7f79771235241
  - enabled: 1
    path: Assets/_Scenes/GameEnd1.unity
    guid: 015615c528ba24afcb1e88bfb3eacc9b
  - enabled: 1
    path: Assets/_Scenes/GameEnd2.unity
    guid: 1810c6504c2c848819266ddfcd40e9ec
  - enabled: 1
    path: Assets/_Scenes/GameEnd3.unity
    guid: 27b2a8a95e88d4aa1934bc770103bd4c
  - enabled: 1
    path: Assets/_Scenes/GameEnd4.unity
    guid: 1b5866963d77242d8961aa8d3a0315a8
  - enabled: 1
    path: Assets/_Scenes/GameEndCredits.unity
    guid: 8ff8563d401f54bcca1b6643b1990b4e
  - enabled: 1
    path: Assets/_Scenes/CreditScene.unity
    guid: 1246a2cb22a254d93b086e0743477f23
