%YAML 1.1
%TAG !u! tag:unity3d.com,2011:
--- !u!114 &11400000
MonoBehaviour:
  m_ObjectHideFlags: 0
  m_PrefabParentObject: {fileID: 0}
  m_PrefabInternal: {fileID: 0}
  m_GameObject: {fileID: 0}
  m_Enabled: 1
  m_EditorHideFlags: 0
  m_Script: {fileID: 11500000, guid: ae0543fe805424df99fe08ce744cbe49, type: 3}
  m_Name: Bind
  m_EditorClassIdentifier: 
  m_PoseEntries:
  - path: Bones/Hip
    localPosition: {x: 0, y: -0.83, z: 0}
    localRotation: {x: 0, y: 0, z: 0.69274336, w: 0.7211843}
    localScale: {x: 1, y: 1, z: 1}
  - path: Bones/Hip/Torso
    localPosition: {x: 0.43000016, y: 0.00000074505806, z: 0}
    localRotation: {x: 0, y: 0, z: -0.004163434, w: 0.99999136}
    localScale: {x: 1, y: 1, z: 1}
  - path: Bones/Hip/Torso/Head
    localPosition: {x: 1.1200199, y: -0.000000007592007, z: 0}
    localRotation: {x: 0, y: 0, z: 0.0064622993, w: -0.99997914}
    localScale: {x: 1, y: 1, z: 1}
  - path: Bones/Hip/Torso/R Arm
    localPosition: {x: 1, y: 0.28, z: 0}
    localRotation: {x: 0, y: 0, z: -0.9982488, w: -0.05915541}
    localScale: {x: 1, y: 1, z: 1}
  - path: Bones/Hip/Torso/R Arm/R Arm 2
    localPosition: {x: 0.5999998, y: 0.00000032782555, z: 0}
    localRotation: {x: 0, y: 0, z: 0.16029334, w: 0.9870694}
    localScale: {x: 1, y: 1, z: 1}
  - path: Bones/Hip/Torso/L Arm
    localPosition: {x: 0.9873357, y: -0.33109626, z: -7.9902344}
    localRotation: {x: 0, y: 0, z: -0.9892147, w: -0.1464728}
    localScale: {x: 1, y: 1, z: 1}
  - path: Bones/Hip/Torso/L Arm/L Arm 2
    localPosition: {x: 0.59999967, y: 0, z: 0}
    localRotation: {x: 0, y: 0, z: 0.33396095, w: 0.9425869}
    localScale: {x: 1, y: 1, z: 1}
  - path: Bones/Hip/R Leg 1
    localPosition: {x: 0.17, y: 0.18999997, z: 0}
    localRotation: {x: 0, y: 0, z: -0.9999513, w: 0.009870802}
    localScale: {x: 1, y: 1, z: 1}
  - path: Bones/Hip/R Leg 1/R Leg 2
    localPosition: {x: 0.50999975, y: 0.00000029196963, z: 0}
    localRotation: {x: 0, y: 0, z: 0, w: 1}
    localScale: {x: 1, y: 1, z: 1}
  - path: Bones/Hip/R Leg 1/R Leg 2/R Foot
    localPosition: {x: 0.6900002, y: 0.0000005806796, z: 0}
    localRotation: {x: -0, y: -0, z: 0.71431124, w: 0.6998282}
    localScale: {x: 1, y: 1, z: 1}
  - path: Bones/Hip/L Leg 1
    localPosition: {x: 0.17, y: -0.20000067, z: 0}
    localRotation: {x: 0, y: 0, z: -0.9999882, w: 0.004858908}
    localScale: {x: 1, y: 1, z: 1}
  - path: Bones/Hip/L Leg 1/L Leg 2
    localPosition: {x: 0.50999975, y: 0.0000012516975, z: 0}
    localRotation: {x: 0, y: 0, z: 0, w: 1}
    localScale: {x: 1, y: 1, z: 1}
  - path: Bones/Hip/L Leg 1/L Leg 2/L Foot
    localPosition: {x: 0.673931, y: -5.749348e-10, z: 0}
    localRotation: {x: -0, y: -0, z: 0.7178098, w: 0.69623935}
    localScale: {x: 1, y: 1, z: 1}
